@relation naturalclass

@attribute a1 numeric
@attribute a2 numeric
@attribute a3 numeric
@attribute a4 numeric
@attribute a5 numeric
@attribute a6 numeric
@attribute a7 numeric
@attribute a8 numeric
@attribute a9 numeric
@attribute a10 numeric
@attribute natural {1,2,3,4,5,6,7}

@data
94.52147,121.817604,119.836914,31.964281,54.83329,25.184698,39.5441,20.782028,20.50626,9.711857,1
93.85729,116.31918,117.56308,31.287275,54.20454,24.73258,32.54982,15.177349,15.0439005,5.0696087,1
106.9793,114.2802,115.929016,32.763332,45.954685,15.939143,45.375656,14.344893,14.467344,7.525622,1
82.151924,99.23527,98.294846,23.554394,43.360703,22.113081,34.07849,13.99328,14.149169,2.0075054,1
68.657196,83.95611,85.69111,24.673878,36.14937,13.370848,31.130823,8.834157,9.3316555,9.939126,1
80.40417,82.9647,82.01909,29.541777,43.220165,14.953196,37.98509,13.026436,12.712073,9.256101,1
72.09408,85.172005,84.798065,33.835247,49.674126,16.344877,26.907812,9.536551,9.96256,14.463589,1
66.72866,83.258545,83.040535,25.979408,43.781525,18.895273,25.178402,11.063997,10.808146,5.951633,1
73.35195,80.45544,80.899445,33.006893,48.099632,15.946739,31.891748,10.325288,10.827916,15.982615,1
77.20756,88.552505,89.40327,33.15062,44.560356,11.783921,32.950996,11.308968,11.33584,10.911625,1
80.64481,87.89797,86.827995,27.863289,43.569653,17.363724,28.600346,9.019463,9.27949,8.991965,1
68.65644,88.551765,90.456985,19.543095,34.318386,17.658865,27.618519,14.7133465,14.806964,3.510166,1
75.31804,92.833206,90.331055,21.126713,41.2479,22.66098,44.728542,15.83699,16.740124,2.430629,1
69.99444,81.302925,81.69888,31.413506,45.701294,14.841542,28.291265,9.019466,7.507977,10.754392,1
76.09484,99.351906,99.36026,22.364794,37.608284,18.039553,36.408264,15.1054325,14.80449,2.689632,1
96.5299,110.00313,111.493744,37.52594,51.878086,15.414819,42.225185,13.362779,13.303034,13.388811,1
85.27299,100.868195,101.25437,28.370602,44.604225,17.574398,38.941166,15.206251,14.799134,5.8056984,1
91.674194,113.463936,114.580696,30.228615,54.594753,26.407295,28.49976,17.88928,18.77942,7.774169,1
78.63682,96.27118,96.29489,22.712868,41.426712,20.915262,36.56104,14.435198,14.040248,4.009763,1
77.45875,98.02014,97.14235,28.132689,44.142014,18.11566,31.019657,13.415876,12.320066,6.892865,1
107.25352,111.81361,110.89188,39.254112,58.46117,21.335903,48.542465,16.215214,15.635685,6.148882,1
88.039474,103.684204,104.22401,33.126293,52.354366,20.057613,42.679504,14.246801,13.316007,6.8560143,1
71.87822,103.11477,104.814644,23.38387,40.770615,19.42646,42.10746,13.369812,15.155926,3.5457313,1
81.544685,98.20788,99.99678,28.764143,49.277523,22.411974,30.70041,10.021067,10.931916,5.408997,1
81.45411,104.48748,105.50945,30.106255,51.096344,21.962523,32.404438,13.762274,13.546986,10.454517,1
80.32743,106.99701,109.71976,24.328428,41.194305,19.724064,35.82881,13.073712,14.288383,3.215553,1
94.23407,102.531044,102.29442,33.74027,52.00508,20.676582,40.32685,21.415598,19.991217,4.681924,1
78.846596,93.14859,93.03521,34.47129,46.84594,13.557244,35.18215,8.576812,10.518465,15.092708,1
85.35326,103.66214,104.22026,39.23788,54.742134,16.997536,37.992863,16.066788,17.219408,20.525034,1
101.06852,116.55344,117.67273,26.53861,47.89352,23.964516,34.744987,15.918428,17.415253,7.8219194,1
97.331345,106.034645,106.02733,42.01958,56.312527,17.552553,36.271343,18.584515,19.314556,18.584757,1
87.65695,106.40461,106.11637,23.712414,37.60229,18.365368,29.067629,16.26921,16.735771,5.069702,1
72.04653,101.18527,104.5117,22.292957,39.622807,18.94296,40.20049,10.1339655,10.714362,2.8364937,1
88.862755,109.42524,109.07938,24.798067,42.63259,21.701048,36.923317,16.561953,17.691334,3.668926,1
81.419365,105.77894,105.46745,24.127361,40.702137,19.170897,34.237335,11.058464,12.366871,1.4123197,1
85.93866,106.60011,107.456314,24.72833,45.32252,22.353899,40.347775,13.564978,13.792056,3.2535627,1
87.29958,104.960686,103.24632,29.172659,48.563644,20.936718,35.353664,20.42606,19.670578,11.517583,1
79.10447,93.172035,94.32779,35.18525,48.93342,14.579359,35.80302,9.641136,9.96547,14.228707,1
88.69907,96.93523,94.24576,40.879112,55.83197,17.89194,28.665237,12.030259,12.231416,14.555709,1
81.950935,96.2882,91.4693,26.395613,45.97438,21.96232,37.938065,19.256697,18.288803,5.546066,1
110.74262,119.4001,119.44084,34.9778,54.0944,22.23494,43.095093,20.412992,20.365753,8.722012,1
109.42508,134.96153,136.34451,31.531746,54.18228,27.00285,40.606655,23.179668,22.94066,7.8452353,1
94.33289,113.57744,114.29725,27.814268,46.942905,21.46241,40.40696,17.551298,17.947596,4.44947,1
94.32627,125.98614,123.881325,37.44284,58.888256,22.543697,44.93968,19.022469,18.908499,9.165156,1
98.303825,121.548584,118.58349,29.016891,54.262074,28.652252,45.244488,14.758014,14.517491,3.3524408,1
104.48292,124.06419,124.72053,32.547665,55.851788,24.952538,36.72715,20.856678,20.16461,4.802095,1
95.26905,107.701324,105.94812,32.75439,51.136543,19.802597,37.322803,19.212029,17.382908,7.208381,2
88.20137,113.9679,108.31474,31.659662,50.54514,21.354343,45.438934,21.720451,20.919962,8.739495,2
75.78864,116.60213,112.85545,25.916447,49.80956,27.078482,44.608673,21.597013,21.2905,5.614822,2
92.4116,106.18288,104.215546,25.222397,42.745018,19.24088,44.792175,22.295052,21.560154,3.6786938,2
107.92188,116.23698,113.52198,44.678097,63.725822,21.919405,52.657383,18.361687,17.169239,12.016412,2
111.483055,107.13301,100.633484,39.684036,57.442085,22.00309,44.7361,18.265583,18.385344,7.6822824,2
78.08654,112.51556,112.2605,27.565,47.46713,22.46567,40.87012,21.099108,21.064209,8.042458,2
97.97905,105.022575,101.06924,42.949196,61.43263,20.541792,30.879519,16.510775,16.148855,12.15904,2
84.46642,99.723045,101.28502,26.167423,41.929493,20.291416,37.622833,14.843855,16.205603,2.138084,2
95.946236,105.58927,103.500244,28.706379,43.208847,18.456606,36.857037,16.599405,15.47932,5.375073,2
92.37792,112.19274,110.37614,25.64992,50.05679,27.328777,37.94351,20.66457,21.220724,3.2320676,2
83.53076,113.30849,109.187325,44.451836,67.05733,24.434496,39.182095,18.201591,18.01499,22.90189,2
108.11144,129.09303,130.31529,42.914345,69.07176,28.580675,47.445446,18.141636,16.628075,8.498345,2
88.98917,117.930305,120.4372,29.783632,53.168007,24.426497,45.400745,19.457922,18.155113,8.000851,2
131.41266,132.39659,131.26193,40.700916,63.510323,25.089972,53.65062,22.136007,20.991186,8.624027,2
115.50276,124.13022,122.58361,31.003727,52.76708,26.862478,58.92282,16.794134,17.131865,3.2476795,2
113.793365,118.742096,114.379036,35.771984,59.147156,25.819834,40.119663,17.293558,16.401358,7.515833,2
81.26104,105.082756,107.11991,28.700525,49.19768,24.83071,36.921215,14.765562,14.920924,7.5739684,2
106.74197,132.16652,131.25345,33.30144,51.71586,20.82912,44.07602,20.237766,20.303646,8.45018,3
96.72609,112.58677,115.57456,44.44244,60.263943,17.612848,41.978565,12.192798,12.637826,18.853783,3
78.39869,96.26696,97.07389,36.8477,53.459682,17.537148,38.63568,9.850905,9.725773,10.544306,3
69.958755,84.32578,83.27897,35.684235,49.870537,15.004228,28.386818,10.658794,10.785459,15.42948,3
59.1323,81.06955,81.53265,24.374212,37.087284,13.37645,30.740114,9.240039,9.365071,5.366438,3
61.7352,80.41605,78.59715,26.841795,43.341732,17.612541,39.089886,7.606931,7.447802,5.5753765,3
73.518745,89.06124,91.47097,30.415224,47.446606,18.51676,34.312527,4.2844367,5.0233216,5.9535003,3
77.70482,88.85561,88.39369,26.639568,43.799667,19.400629,36.512897,12.913844,13.082246,4.5025015,3
97.0563,98.86445,98.397606,28.443243,47.348843,20.144085,41.521748,13.844046,13.028985,5.428614,3
77.25201,106.20217,108.267395,37.74643,58.363842,20.938017,39.003098,14.213657,14.140474,16.871454,3
97.077156,108.03941,108.090836,37.380417,53.98545,17.613045,43.862934,18.666883,17.837547,7.9373546,3
82.59501,98.18696,97.632935,34.39341,50.615715,16.759829,34.56189,14.694962,14.85209,11.575127,3
96.09847,105.03572,105.09401,25.462446,38.380714,16.55652,51.966366,11.5186615,13.009459,6.4710474,3
88.58134,101.744354,102.97592,31.89498,49.981426,19.381838,35.09135,9.729699,9.5797415,6.958184,3
98.946075,105.884056,104.96356,39.391735,56.730537,18.565023,41.725136,16.240997,15.857809,10.937181,3
96.01858,102.476295,104.956764,40.25324,55.105938,16.152998,43.28289,12.916992,13.230058,11.473707,3
87.30952,101.74395,101.520805,33.218613,50.344913,18.382288,37.27973,18.267307,17.502567,9.088076,3
96.99429,105.03324,104.770775,43.689728,60.67018,19.341375,34.04983,14.072028,13.936702,21.703896,3
70.33805,97.23269,97.348656,28.63033,46.00216,18.362633,24.3843,8.000548,8.819012,11.75838,3
80.13131,100.69398,99.9737,38.72716,57.080288,19.038267,32.954014,17.62409,16.800724,19.377092,3
80.123085,100.102776,99.447105,38.346172,55.113968,18.058128,36.26227,11.579965,11.698702,24.387638,3
97.20285,107.132996,105.08533,39.074276,54.12735,17.813128,38.533295,13.769772,13.834343,17.242647,3
88.22364,93.549774,91.68651,36.14568,54.77559,20.19399,43.23154,14.058705,13.833279,10.228552,3
72.098785,93.58055,93.47225,29.4183,45.577866,16.604055,33.357662,13.601427,12.713249,6.1369734,3
99.89842,110.933205,112.978775,41.5119,64.924736,25.652538,42.07214,11.197072,11.594608,9.089727,3
88.192665,98.046936,99.00183,32.95797,46.568256,15.622136,40.46962,11.84622,12.212059,7.8594794,3
94.87323,109.954605,111.783356,38.174374,56.766403,19.915392,44.126114,18.824091,18.030668,9.589599,3
79.889336,97.84746,100.73354,26.459799,41.505623,16.612305,42.30257,10.6875305,10.742648,6.191188,3
88.949295,98.886444,99.93896,35.389965,51.531326,17.82709,43.418465,13.480443,12.896067,9.326914,3
85.02629,91.8451,91.23162,35.0164,48.272354,14.410408,37.297783,11.576122,11.546968,11.321578,3
83.26855,97.148094,96.70134,32.068417,52.567238,22.299011,30.391865,10.33748,10.320935,5.4262815,3
84.47394,98.91976,99.83971,37.71693,52.786613,17.740725,46.538273,12.450924,12.937788,13.596676,3
93.71286,110.790764,112.46883,35.860165,55.00835,20.93259,43.7695,8.751871,8.829178,5.6715302,3
81.48371,99.28103,101.99995,31.755844,49.91756,18.75187,37.915836,10.426197,10.562222,8.3651705,3
89.21607,96.61021,96.969826,39.152363,54.095207,16.225262,41.739017,10.003254,9.4520035,12.328378,3
78.77525,104.10862,105.96735,39.904705,58.471436,19.404425,38.41985,9.8645,10.223182,12.752416,3
84.02954,92.22597,92.31906,30.775932,50.16091,21.255964,36.476738,10.353875,11.237941,7.276202,3
95.08204,94.93498,96.5127,37.98814,52.14724,14.862582,44.28962,12.657292,13.18165,22.192547,3
78.51598,106.26529,108.94589,27.31111,45.702656,19.649944,43.19406,11.125274,12.100045,5.9764714,3
83.11565,99.84342,100.37079,26.171322,45.012,21.061981,36.86,11.473678,11.356266,4.8136153,3
88.844894,106.74393,110.21509,28.009523,42.599285,16.487635,48.011642,8.828338,10.416041,4.7602334,3
88.15543,100.94653,99.307915,36.5865,53.650623,18.178406,39.029877,11.516375,11.882657,10.6386385,3
91.49502,107.10222,107.83308,30.432858,49.42894,21.780113,41.39091,10.496642,11.52824,6.477363,3
75.661804,94.173645,94.24094,25.974447,42.827145,17.585697,41.412838,16.427738,17.083815,8.407972,3
91.30211,102.38248,100.98867,41.936897,60.79554,20.518005,41.159164,14.281349,13.859084,14.474541,3
80.12023,102.747185,102.89023,31.949724,52.453533,21.635431,40.064117,10.676098,11.281536,7.1682806,3
72.93028,92.9018,94.576225,24.639168,37.696304,15.956031,32.85365,10.946887,12.399004,7.783654,3
74.04336,97.00381,97.81615,31.531942,47.06213,16.061247,43.099224,9.890147,10.809616,9.497383,3
81.16423,90.52709,91.28362,34.35636,47.50627,13.519514,33.252987,11.779323,12.844587,17.258457,3
90.86934,102.46954,101.00814,41.07903,57.201477,17.698118,29.995312,10.908691,12.155084,18.347445,3
79.46611,94.868904,99.246826,25.184412,38.912487,14.396804,33.289165,12.649531,13.037212,6.902463,3
78.16594,88.473755,86.565575,33.914352,46.726402,15.391109,31.546541,10.880081,11.009006,9.95553,3
91.594986,101.560295,97.52198,39.23483,54.39774,17.734451,34.037495,12.665861,13.550972,19.644705,3
77.00046,99.499405,101.58339,25.10514,38.567978,15.148861,38.513874,12.404424,13.055234,6.437026,3
78.81863,96.94911,96.449196,34.227295,48.545345,14.635788,35.567135,12.360171,12.274512,16.310486,3
83.915054,102.296,101.94221,40.036034,55.152905,15.589876,36.689705,16.375103,16.217735,17.704277,3
87.67474,87.384254,90.491974,34.071434,44.92457,12.189634,45.885136,10.796199,11.25899,14.38664,3
73.957275,88.17674,89.77138,27.83303,43.375465,16.090008,29.593674,10.83452,10.526651,6.704029,3
86.11183,96.34743,95.08732,36.377247,49.79537,16.787857,44.615654,10.131312,11.513006,14.590544,3
128.8212,119.13068,120.65055,46.645332,65.6497,20.443565,46.291885,22.292759,21.093355,13.284825,4
78.76952,83.533165,83.024216,34.445198,50.33741,17.167278,21.565714,14.191314,14.776417,16.629614,4
86.30066,95.40645,92.801765,37.17765,51.607727,16.403917,35.795486,15.426277,14.987316,16.731306,4
88.05452,83.488,83.375084,31.052967,46.55768,16.831932,37.675987,14.300864,13.661865,12.280847,4
103.31119,114.00569,111.61527,48.008453,70.13647,23.95699,42.51419,16.411629,17.400494,17.639072,4
97.063614,107.85974,105.29966,41.78759,57.855976,17.283356,31.36604,14.183826,14.409706,17.198511,4
107.53546,106.58913,102.8904,39.71024,54.152435,17.165575,47.56341,18.918371,18.93112,14.340644,4
108.56679,119.51435,119.066185,46.81828,67.92739,24.31515,56.602737,18.045706,17.87556,15.900682,4
87.408875,100.82748,99.55223,37.926746,56.147305,19.630783,52.273083,15.510904,17.078411,21.87463,4
85.70567,99.66027,100.0573,37.713642,52.57016,17.108622,37.812798,15.806779,15.939593,16.003633,4
93.97913,113.364,110.72351,43.890762,59.386032,16.292356,44.23374,27.246712,26.95975,19.853422,4
104.01399,105.82422,103.15099,41.998413,58.90261,20.041693,44.987507,17.162804,17.06542,13.171192,4
102.61221,119.40749,117.43435,39.423393,63.203735,25.672394,53.137825,22.666117,23.727716,14.309091,4
86.00337,97.250694,96.46306,39.2495,53.589943,18.228418,33.036926,13.164139,14.752775,17.629686,4
107.98218,109.675064,105.579834,39.468372,55.85516,17.841156,33.764942,18.310572,18.117922,16.91946,4
85.48637,99.072266,99.46135,37.063404,56.190548,20.398003,45.053776,14.640005,15.133062,13.22325,4
89.500694,95.01215,93.73311,39.426315,54.04382,16.33003,35.76329,20.718847,20.99124,14.383145,4
89.29348,108.3745,106.28625,42.791565,57.30522,16.63343,42.504803,18.427504,18.00231,13.035583,4
95.26452,94.46796,94.94276,37.587494,50.13061,13.623399,34.724586,13.59933,14.106237,15.121263,4
100.69636,106.33948,107.08634,44.833176,61.688534,17.98788,33.135777,19.49277,19.758953,17.214977,4
123.26912,119.2533,120.89393,48.699394,65.63008,20.016878,50.087414,20.180006,19.433733,18.244131,4
116.87833,136.8894,138.6023,48.0187,69.95731,23.685802,66.05717,26.192776,26.240475,18.368963,4
101.51495,145.06752,145.6567,55.131657,80.064674,25.790863,44.601498,20.474548,21.370203,28.391449,4
117.145615,128.82426,122.26673,38.603283,64.9423,29.643183,45.882565,24.713451,23.216112,8.217993,4
112.735016,122.397606,120.13146,47.260998,67.64301,22.094446,38.51141,24.423603,25.429193,25.138315,4
114.49654,116.72721,112.00612,45.62283,62.654682,21.051966,40.99703,22.945587,22.496195,24.331526,5
103.3857,120.06066,117.476395,47.05496,64.88392,18.574114,37.595493,11.516368,11.63822,20.427538,5
116.34377,113.722176,110.04766,42.077953,59.3354,19.197342,38.743916,15.484567,14.510691,18.334555,5
69.53773,89.25944,87.22,33.77133,46.93787,15.082744,35.01063,10.599661,10.618435,15.617748,5
77.882484,86.79103,84.38257,36.7945,50.149616,14.700087,28.427797,12.341416,12.275885,19.451138,5
26.01452,30.030012,30.305754,11.813259,17.13424,5.6839647,12.938081,5.8697815,6.0209994,6.962964,5
72.52674,86.61959,88.409515,33.921192,45.74853,13.692777,38.222725,8.358811,8.901632,16.175028,5
75.09548,82.17881,83.37757,32.1521,40.48659,10.704216,36.993504,10.564936,11.720484,13.875393,5
75.361496,94.90512,95.46187,37.255924,51.533615,16.334818,37.69246,10.49274,11.447011,14.749859,5
76.64351,89.20732,87.331085,35.91249,51.698402,16.508516,35.682972,10.372,11.4765215,16.21763,5
70.4829,79.11624,76.817566,30.391434,40.93905,12.6038685,24.988552,10.688693,10.434621,11.858695,5
76.25126,85.118164,84.187195,35.782837,48.887455,15.047883,21.790087,10.644501,11.591762,16.696428,5
91.98829,105.523705,106.95297,43.132008,59.66671,17.469467,44.76383,14.538733,16.30168,24.405489,5
107.94032,120.11039,120.64019,46.4858,61.046333,17.445818,54.68495,12.762165,13.539585,19.430866,5
87.163895,103.52266,101.68722,41.288242,55.083744,14.794919,27.367744,14.306478,13.569943,19.688599,5
85.76844,110.284225,106.92497,42.43586,55.61701,15.284978,45.832985,16.098616,16.571243,17.430815,5
88.09087,100.57192,104.05865,39.27949,53.981777,15.802245,36.618816,13.07133,14.27054,17.680645,5
94.693756,114.03606,111.60496,45.370804,61.93044,17.901869,33.87651,15.187269,15.980296,21.497505,5
98.17415,102.28953,100.15692,39.58802,55.089333,17.49416,40.456818,14.780344,15.457475,13.994546,5
108.63272,110.80462,110.78456,45.91131,62.36536,20.441366,39.55138,17.683634,17.985367,16.622713,5
87.79114,107.20827,110.32944,36.849102,52.899498,18.162996,38.0376,9.235592,10.35944,9.888545,5
93.24815,106.27847,107.68064,40.178474,53.262547,15.750257,45.561043,14.0957365,15.536207,21.574535,5
88.74201,90.96005,90.67313,33.99338,47.923588,14.443449,44.17471,12.583061,12.101185,18.205261,5
104.062454,102.630295,99.72639,38.406628,51.496555,16.208176,39.83305,17.949514,16.957912,14.815553,5
96.28788,104.105125,102.78692,38.815903,52.096367,16.406958,34.621212,17.830547,17.907211,15.33844,5
83.18025,98.886894,98.55756,36.181477,53.47511,19.623177,46.91782,12.767976,13.089023,13.517799,5
93.69075,111.86957,110.63953,44.9334,63.916508,21.188251,36.256683,11.976751,11.86862,18.463247,5
94.51022,98.47539,94.2691,36.690296,56.494175,21.116198,34.937748,16.342516,15.350586,14.072316,5
78.884384,93.0743,92.76295,35.705975,49.514458,14.1452,33.25341,10.383296,10.490676,11.917917,5
83.033646,96.15222,96.274826,37.164417,50.852257,15.0823,33.012344,14.181,14.652988,16.617916,5
96.55701,104.95257,104.307625,41.90574,52.442696,12.932771,35.47984,16.627312,17.503681,19.118011,5
98.79831,120.52508,117.055504,48.852276,67.25691,19.69227,34.4944,15.92409,15.635296,21.258066,5
102.74706,97.96466,98.35354,35.756157,51.3658,17.679605,52.876484,14.363076,15.020866,14.774313,5
78.7369,99.7618,99.89307,27.107195,44.735638,18.429531,30.671589,17.57679,16.849134,9.154122,5
88.32194,99.911415,100.41185,39.14345,51.48679,12.845538,31.01849,13.7596655,14.125956,19.416677,5
98.829544,93.57154,94.42974,37.154697,49.106304,13.567095,47.468918,13.896919,12.787631,13.051273,5
95.60172,103.029526,103.621925,41.340813,54.361458,14.958991,40.794666,13.765005,13.923604,16.911049,5
91.684525,103.318115,103.51537,41.886738,56.42909,16.245695,34.812347,14.577217,15.956332,20.214827,5
85.99614,105.43857,106.47436,38.823685,53.512173,16.078466,44.110893,10.624244,11.475207,21.141287,5
102.85126,100.721725,102.23339,43.326385,55.703205,13.064949,43.397957,17.20051,17.849703,23.687284,5
114.07371,114.65899,111.365326,43.25553,60.928963,20.513144,49.91039,21.180334,21.165882,14.828473,5
88.652145,98.40049,103.65801,32.815685,48.709755,16.906166,45.84118,11.742034,13.57627,16.939539,5
86.13429,105.231415,105.54488,41.600727,57.260838,18.02273,34.690178,9.461345,9.875697,16.81913,5
105.47475,101.241646,97.84484,36.25626,49.70565,15.161538,45.22498,16.382223,15.293518,15.05595,5
94.91865,107.89524,106.440834,40.210934,55.663376,17.921997,47.860622,16.401066,16.493004,18.404718,5
105.17166,98.57189,97.61679,40.37177,53.919758,14.9723215,45.121223,15.171977,14.162876,16.837063,5
93.30928,109.90658,109.80287,45.452824,59.204826,14.925024,48.33401,14.895411,15.542281,21.680212,5
101.04162,103.82899,99.70116,37.827843,52.16515,17.680883,38.792343,15.895943,15.314276,16.965002,5
97.02421,107.242744,106.26988,41.250145,57.57965,19.295885,36.875706,12.296806,12.951421,16.273388,5
101.650566,111.6771,108.49282,42.49796,59.06643,19.040306,38.958054,13.958159,13.794744,19.291733,5
89.03289,108.72932,108.68137,42.261696,58.019028,17.436356,42.328903,15.618243,16.5403,14.011915,5
78.776085,96.66646,96.4265,36.345165,48.967674,14.518971,41.457455,14.437591,15.109503,15.05806,5
79.595375,97.17,94.44433,36.981277,50.415768,14.889612,28.04754,14.191191,14.715725,17.900019,5
90.80718,103.01908,103.72252,41.24007,52.43627,15.8331785,37.486855,13.4500265,14.009963,18.410141,5
95.53192,107.06869,103.765205,39.269417,57.8843,20.8312,37.223938,16.40674,15.51271,18.045261,5
87.80435,95.9747,97.732834,37.36549,45.859398,10.236252,35.311672,10.182072,11.746382,15.508042,5
85.01335,96.41527,95.81466,36.996166,50.41668,14.936768,27.138624,16.788763,15.884527,17.607449,5
87.99491,100.20518,96.25735,37.841225,54.15792,17.641375,42.43818,11.1653805,11.408371,13.040282,5
105.86244,100.47822,96.403885,38.97142,49.840076,16.024637,40.38739,17.102533,16.852774,14.838129,5
86.90684,95.401794,94.706726,36.60649,48.90932,13.920152,44.74561,18.102266,17.694944,15.67902,5
78.611786,94.60629,93.705635,30.908804,45.867443,16.037153,31.985973,16.58679,15.550488,8.167655,5
88.849884,107.832825,106.66928,39.43098,55.095814,17.4392,41.57217,15.576209,15.940036,22.150774,5
93.83862,97.33967,97.02907,38.743717,56.96896,19.016607,41.27664,13.773056,14.154087,17.793442,5
79.605484,97.224106,96.83922,38.80652,53.847145,16.759544,35.17494,11.647693,12.178245,20.1975,5
81.811295,91.870964,90.34511,35.84907,49.47415,15.205421,35.46763,9.904492,9.786205,13.523882,5
75.65265,97.108665,97.84349,33.82743,46.149242,13.562631,32.00592,10.879699,11.54854,15.857369,5
77.48565,104.48668,105.14884,32.92208,47.917946,16.19992,39.211372,13.772721,14.754081,16.462631,5
74.20409,95.84169,95.2531,34.899826,49.079227,15.564477,36.17079,17.710375,17.29764,14.118104,5
102.7959,107.48843,105.580505,41.42094,55.99131,16.142473,54.381145,15.962803,14.186429,7.7646956,5
94.613045,100.26949,101.48508,37.486176,48.890053,12.583617,49.4955,9.636688,9.512059,12.000639,5
100.088196,126.49159,124.44107,51.84222,72.5786,21.206331,32.87365,20.763937,21.169378,30.516169,6
107.77421,117.42693,118.56133,29.800007,44.09108,19.106375,39.206593,14.082217,14.420184,2.6858275,6
70.47996,86.969604,88.3015,19.994652,34.518486,15.346975,30.035564,16.73171,16.096498,2.963386,6
76.42559,89.35771,88.895,35.96013,50.49147,15.388759,26.911251,15.435817,15.530381,19.060343,6
86.02564,117.04182,116.64732,29.28027,48.01395,23.299608,34.870644,17.92132,19.58673,3.4403687,6
81.73568,104.34465,104.35956,23.587008,42.39055,20.389328,42.343952,21.783537,21.360985,4.7080793,6
89.09409,100.288,97.86347,40.015213,57.94247,19.243532,35.1049,18.344036,19.08755,17.012043,6
92.96107,111.271774,108.56117,38.206802,62.11827,26.187944,39.508278,17.012152,18.442184,16.29962,6
99.948135,116.03501,113.89453,34.31749,53.53047,21.964922,41.629757,18.717512,18.683783,4.3331294,6
85.12,97.122,96.59983,33.97481,51.79724,19.208204,32.20582,17.592936,16.640738,7.985602,6
79.83615,110.58827,111.71079,23.006523,41.135284,20.544403,39.55272,15.000572,15.651496,1.8551562,6
90.31698,111.00356,110.334526,25.556885,41.97363,18.7666,45.042583,23.688753,22.940395,4.050644,6
80.52436,101.97011,104.76691,24.326984,39.305683,17.410975,31.94996,13.66407,14.204384,5.0368404,6
97.73542,118.93735,118.226364,30.056305,48.914795,21.62888,42.343887,17.38945,17.855463,4.1941075,6
86.12219,107.569466,107.28254,34.472057,51.481117,18.710321,41.27738,18.12654,17.815714,8.787045,6
88.71715,98.54754,96.52055,35.199955,54.43691,21.397902,34.60584,16.026073,15.6224985,17.108088,6
98.4404,107.84689,105.44818,38.719784,55.50883,19.013744,37.20612,17.21142,17.1176,9.2017,6
78.26714,105.40842,106.90083,35.658268,53.325867,19.05507,31.81745,18.05239,17.961014,16.183979,6
78.31664,90.44251,90.659645,27.015102,41.344475,15.5873995,26.074545,12.902665,12.091753,5.125852,6
81.01599,102.08038,100.58963,24.163893,46.233265,23.902147,39.69483,12.971681,12.415428,5.749704,6
96.968895,115.43483,113.09467,35.824646,56.014957,23.220238,42.94505,13.687015,13.797797,6.0070004,6
83.308784,113.64094,112.481415,42.885254,62.179646,20.819506,34.85214,19.562132,19.32093,21.998276,6
96.41485,123.62799,124.59468,33.62127,52.878395,21.67089,32.86766,17.470003,18.17255,4.502817,6
96.146164,118.85721,118.882454,29.374903,50.800755,23.846247,42.462955,18.813717,19.031555,6.4167924,6
122.62258,135.22675,138.1559,29.743261,52.44528,25.935266,44.91509,21.42212,22.77214,5.487071,6
101.56649,117.29936,118.58234,28.35204,44.467205,18.330248,49.60972,19.066349,18.188362,4.9106846,6
107.087296,124.05942,119.504486,31.669992,53.349648,26.455158,40.0664,19.708393,19.464361,3.2890234,6
107.912285,124.83074,126.12227,27.052197,54.681828,29.38697,44.564663,18.532534,18.479105,1.7099274,7
93.25138,137.65353,138.33163,62.227383,83.44544,22.135427,35.29038,22.811115,21.438297,32.04655,7
93.99225,120.401726,124.48106,24.994293,48.025642,25.920649,50.64977,16.470694,16.84881,3.565366,7
84.52474,105.570274,103.988335,45.870796,65.84317,20.829248,38.971184,18.247023,18.853298,27.510553,7
70.442116,99.41667,101.01721,43.82028,61.290825,17.827564,48.98555,18.281761,17.766008,18.91019,7
62.828182,86.97162,89.57942,28.444256,45.867954,18.522154,27.349752,14.514046,15.167921,11.892916,7
71.273285,102.05788,102.252365,46.27072,68.5256,23.56293,39.09842,14.814438,16.118944,26.5941,7
64.06473,103.48956,102.755775,45.840076,62.208508,17.258705,36.53054,13.878255,14.863686,25.457195,7
82.602394,111.60247,109.506775,49.78343,72.52262,23.563107,38.84599,15.316107,15.299217,22.598524,7
73.26363,100.02026,101.36387,44.932167,62.301315,18.197529,42.07317,14.815583,16.180443,26.86929,7
59.60128,95.503815,92.56099,41.008625,58.87195,18.145052,33.293087,14.356891,14.849993,24.959728,7
71.5695,106.226654,106.05691,45.82036,63.498524,18.506182,36.341347,19.225605,19.064974,26.454702,7
62.782684,104.16231,103.217735,44.7679,69.73464,25.381199,34.896603,15.602202,16.190142,20.995123,7
91.96075,118.96699,119.31334,38.412,58.64562,21.696089,32.55759,18.084002,17.110558,14.756432,7
72.59831,121.14637,121.27924,32.73103,60.8075,29.110985,36.754192,23.660244,22.606874,13.195412,7
92.324875,136.30406,139.3593,38.340984,64.40711,27.811033,60.50821,20.597704,22.129166,14.458097,7
90.82585,127.29573,128.29443,58.72357,79.58835,22.793747,44.31704,17.018436,19.308498,32.36942,7
93.08954,107.8096,110.10775,33.02847,49.75514,18.462406,50.48201,20.615976,19.384003,8.27431,7
99.47214,122.642395,122.68807,54.171818,73.46643,20.299112,43.114815,15.331549,15.955785,28.427032,7
85.55055,110.822815,112.93606,45.31109,61.963753,18.004255,40.527924,20.730268,20.464972,21.847315,7
87.74002,125.67346,123.17173,36.975677,59.040684,23.588457,41.35956,20.979116,21.020273,11.364349,7
79.02617,129.30959,128.5185,54.900204,81.242905,27.116974,42.78966,18.506048,20.088991,27.57374,7
90.68901,113.76847,117.016685,30.68326,52.906605,23.054226,59.08335,16.514036,16.976954,7.2365584,7
78.60778,126.656334,125.01048,53.37915,74.529816,22.032,36.531315,20.48473,21.022486,26.998608,7
97.488144,129.73032,129.12366,55.162743,79.38383,25.602142,54.589035,19.392471,19.180727,23.848127,7
88.74179,126.76226,128.23677,55.627983,82.38353,28.413,38.487305,20.044024,21.944176,27.529427,7
89.36465,122.49729,120.67818,42.4903,66.297165,25.524178,40.911274,16.249668,16.998497,23.843891,7
70.05575,108.905945,110.23874,46.769726,67.95271,21.579897,47.808567,17.677065,17.582272,23.913187,7
84.65536,118.91682,115.94261,50.305073,73.26015,23.443954,46.490135,21.789839,21.498346,31.480341,7
81.42783,121.0681,122.96581,26.991728,54.704514,30.330017,40.30026,20.7892,21.074535,5.942377,7
83.51136,110.06359,113.534615,46.39992,64.83023,19.177193,51.74802,17.226519,19.047043,27.732813,7
106.859436,118.47299,117.20383,49.108665,73.77252,25.769318,60.535755,22.214745,20.906319,12.173302,7
85.19916,98.82585,101.72406,43.584713,62.92436,19.71528,42.82086,16.408167,17.28979,18.533033,7
89.55341,119.12703,116.10965,51.71644,74.02777,23.53678,45.71808,18.243889,18.994673,23.765375,7
98.230194,128.6739,127.33283,55.061108,78.76107,24.330149,51.352654,22.502289,22.81829,30.479622,7
86.84119,123.93055,123.0847,55.310886,77.227715,22.96765,39.078583,19.469532,21.358028,32.61218,7
83.578766,126.66285,122.74806,57.269333,81.72694,24.819384,32.004837,21.287457,20.015326,28.472988,7
81.150734,124.51285,124.58661,55.15935,75.96264,21.488283,49.198067,21.060709,21.367222,33.666134,7
77.088196,110.65167,111.56605,24.996815,45.99321,21.945179,40.920765,19.640095,20.058044,8.896861,7
80.91656,107.46627,105.124825,27.193157,46.59703,20.572186,30.140247,18.297812,17.702982,9.777085,7
80.33296,113.08068,114.70914,48.58714,65.73068,17.374853,45.881145,23.338327,22.387037,24.4468,7
78.347855,117.86884,120.83493,32.89456,55.912872,24.39145,39.422363,19.20599,19.198042,14.426226,7
87.61222,124.842125,126.66099,26.761415,49.828766,25.848503,54.539696,17.424185,18.273357,5.038027,7
82.81668,121.26307,119.03089,48.87349,73.64123,25.127333,58.697422,22.275654,21.688198,24.078365,7
79.16202,130.07463,131.61816,58.515507,81.52121,23.77778,43.450176,17.563631,17.648127,26.480715,7
81.86225,112.65473,114.87774,38.957417,63.243813,24.769093,50.803364,15.480023,14.95014,12.841401,7
83.15927,110.51305,112.40958,29.828245,52.62035,23.980286,48.53065,15.21672,16.37531,10.312432,7
83.50483,112.05213,112.309166,45.833843,66.39822,21.381409,39.451275,19.89127,20.1015,24.558653,7
86.71855,115.04486,115.97273,53.120247,71.60796,19.306383,37.166767,18.491941,19.31891,27.311255,7
87.7357,123.115135,126.63543,54.581486,74.74064,21.064617,59.83091,19.40548,20.85096,27.433813,7
89.71446,113.652054,112.38351,50.89699,70.418625,20.851194,36.809933,12.862194,12.8756485,22.974228,7
79.70819,121.266846,124.21973,54.01215,74.95814,21.464607,50.07748,18.310904,19.14412,31.345589,7
76.92313,116.20103,118.49606,24.369694,46.603283,23.612104,46.009556,22.744846,22.256824,6.944513,7
74.01122,124.547806,125.118546,53.4465,71.36911,18.505453,49.05006,23.648901,23.615814,33.58734,7
87.37731,124.21417,121.73074,56.480553,78.15982,23.305292,45.705044,20.31144,21.241335,25.366667,7
80.53913,117.17242,117.09949,29.56208,51.595924,24.778166,34.651516,18.789051,18.90664,12.146275,7
78.670204,126.321266,126.22872,54.41561,78.765594,25.098787,44.705605,18.875263,19.120779,29.925997,7
79.08724,136.2543,135.66292,58.73976,83.21643,25.132383,42.56278,18.174198,20.1024,29.845158,7
79.76853,117.470894,120.96455,29.952963,51.61049,23.438974,47.345192,13.023163,14.142269,7.028059,7
75.17605,112.96933,112.807846,27.97946,53.356228,26.90512,39.713478,16.444729,16.847235,7.094326,7
78.60159,128.51802,130.02895,56.14979,82.64455,27.271025,38.104485,18.57126,19.98709,20.955301,7
85.86384,118.4293,120.81524,49.15683,70.52793,22.62101,32.845695,15.872545,14.105523,19.613626,7
87.160835,110.97757,111.7828,25.423632,46.351658,24.201176,30.409258,20.933962,20.53663,5.057659,7
90.97696,126.98582,129.9708,57.40152,78.24152,22.011507,42.29076,18.442648,20.225006,31.861294,7
104.26899,131.92448,129.5714,60.863728,84.843445,26.559374,43.161713,22.103306,22.451147,27.9539,7
81.19,125.49331,124.0266,57.430313,78.942566,21.919146,31.573368,22.13106,21.941347,32.480328,7
71.34751,116.499466,118.201904,31.831926,55.969963,25.469063,34.85831,18.797728,18.333494,9.235636,7
85.12668,124.05601,124.49018,30.047607,53.66725,25.547915,34.57264,16.66479,17.425108,16.004347,7
89.465164,113.786285,113.34535,40.157146,61.485165,22.098349,50.81328,17.441137,16.52628,16.413149,7
91.85267,130.69911,128.2556,53.518173,75.706375,23.226446,54.470234,19.185417,19.677538,26.657982,7
79.24163,98.30652,100.62019,20.859287,41.0195,21.544626,37.399437,17.058115,16.581886,4.7380104,7
89.24085,116.26234,111.92802,45.836033,68.418015,23.097185,43.54031,18.385386,18.476206,24.747543,7
78.93704,119.21061,120.90107,49.03608,72.86261,24.740074,44.663635,18.56465,19.17113,28.507315,7
86.689255,109.270515,112.18244,23.921648,46.727764,25.408253,49.262344,23.23588,23.989,7.6024213,7
79.56345,98.16623,101.826004,21.689184,37.20323,17.88226,38.394596,16.76042,16.87951,4.264278,7
97.25067,124.88974,122.379776,53.00316,73.40277,21.085125,51.10885,25.296413,24.770222,30.952799,7
71.335655,111.467865,113.136116,27.281572,51.575535,24.671822,41.340042,17.167343,16.169628,11.405353,7
81.71546,106.811584,107.408134,45.043694,64.709274,20.637234,32.178696,18.353851,20.107935,23.264826,7
77.340775,110.1457,107.813576,45.00163,63.56767,20.293196,39.484715,12.312263,12.148337,20.78218,7
90.09884,123.5057,121.080284,55.043842,78.10451,24.724564,41.74999,19.67621,20.460562,22.985086,7
80.86455,117.371185,115.77838,52.893764,75.73752,23.368187,41.267067,21.122978,20.920261,27.143084,7
95.01974,124.11529,121.91698,34.826717,56.715557,23.1439,51.876225,17.785645,16.703876,5.4524326,7
82.93573,112.848045,111.74964,40.69561,59.956463,20.61729,29.064697,17.519676,17.141472,16.435093,7